digraph "Pylon::CBaslerUsbCamera"
{
  edge [fontname="Helvetica",fontsize="10",labelfontname="Helvetica",labelfontsize="10"];
  node [fontname="Helvetica",fontsize="10",shape=record];
  Node1 [label="Pylon::CBaslerUsbCamera",height=0.2,width=0.4,color="black", fillcolor="grey75", style="filled" fontcolor="black"];
  Node2 -> Node1 [dir="back",color="midnightblue",fontsize="10",style="solid",fontname="Helvetica"];
  Node2 [label="Pylon::CPylonUsbCameraT\l\< Basler_UsbCameraParams\l::CUsbCameraParams_Params \>",height=0.2,width=0.4,color="black", fillcolor="white", style="filled",URL="$class_pylon_1_1_c_pylon_usb_camera_t.html"];
  Node3 -> Node2 [dir="back",color="midnightblue",fontsize="10",style="solid",fontname="Helvetica"];
  Node3 [label="Pylon::CPylonDeviceProxy\lT\< Basler_UsbCameraParams\l::CUsbCameraParams_Params \>",height=0.2,width=0.4,color="black", fillcolor="white", style="filled",URL="$class_pylon_1_1_c_pylon_device_proxy_t.html"];
  Node4 -> Node3 [dir="back",color="midnightblue",fontsize="10",style="solid",fontname="Helvetica"];
  Node4 [label="Basler_UsbCameraParams\l::CUsbCameraParams_Params",height=0.2,width=0.4,color="black", fillcolor="white", style="filled",URL="$class_basler___usb_camera_params_1_1_c_usb_camera_params___params.html",tooltip="Basler USB3Vision camera interface. "];
}
