digraph "GenApi::CFloatPtr"
{
  edge [fontname="Helvetica",fontsize="10",labelfontname="Helvetica",labelfontsize="10"];
  node [fontname="Helvetica",fontsize="10",shape=record];
  Node1 [label="GenApi::CFloatPtr",height=0.2,width=0.4,color="black", fillcolor="grey75", style="filled" fontcolor="black"];
  Node2 -> Node1 [dir="back",color="midnightblue",fontsize="10",style="solid",fontname="Helvetica"];
  Node2 [label="GenApi::CPointer\< IFloat,\l IBase \>",height=0.2,width=0.4,color="black", fillcolor="white", style="filled",URL="$class_gen_api_1_1_c_pointer.html"];
}
