digraph "Pylon::CPylonUsbStreamGrabber"
{
  edge [fontname="Helvetica",fontsize="10",labelfontname="Helvetica",labelfontsize="10"];
  node [fontname="Helvetica",fontsize="10",shape=record];
  Node1 [label="Pylon::CPylonUsbStreamGrabber",height=0.2,width=0.4,color="black", fillcolor="grey75", style="filled" fontcolor="black"];
  Node2 -> Node1 [dir="back",color="midnightblue",fontsize="10",style="solid",fontname="Helvetica"];
  Node2 [label="Pylon::CStreamGrabberProxy\lT\< Basler_UsbStreamParams\l::CUsbStreamParams_Params \>",height=0.2,width=0.4,color="black", fillcolor="white", style="filled",URL="$class_pylon_1_1_c_stream_grabber_proxy_t.html"];
  Node3 -> Node2 [dir="back",color="midnightblue",fontsize="10",style="solid",fontname="Helvetica"];
  Node3 [label="Pylon::CNodeMapProxyT\l\< Basler_UsbStreamParams\l::CUsbStreamParams_Params \>",height=0.2,width=0.4,color="black", fillcolor="white", style="filled",URL="$class_pylon_1_1_c_node_map_proxy_t.html"];
  Node4 -> Node3 [dir="back",color="midnightblue",fontsize="10",style="solid",fontname="Helvetica"];
  Node4 [label="Basler_UsbStreamParams\l::CUsbStreamParams_Params",height=0.2,width=0.4,color="black", fillcolor="white", style="filled",URL="$class_basler___usb_stream_params_1_1_c_usb_stream_params___params.html",tooltip="Interface to the PylonUsb Stream Grabber parameters. "];
}
