digraph "Pylon::CPylonGigETLParams"
{
  edge [fontname="Helvetica",fontsize="10",labelfontname="Helvetica",labelfontsize="10"];
  node [fontname="Helvetica",fontsize="10",shape=record];
  Node1 [label="Pylon::CPylonGigETLParams",height=0.2,width=0.4,color="black", fillcolor="grey75", style="filled" fontcolor="black"];
  Node2 -> Node1 [dir="back",color="midnightblue",fontsize="10",style="solid",fontname="Helvetica"];
  Node2 [label="Pylon::CNodeMapProxyT\l\< Basler_GigETLParams\l::CGigETLParams_Params \>",height=0.2,width=0.4,color="black", fillcolor="white", style="filled",URL="$class_pylon_1_1_c_node_map_proxy_t.html"];
  Node3 -> Node2 [dir="back",color="midnightblue",fontsize="10",style="solid",fontname="Helvetica"];
  Node3 [label="Basler_GigETLParams\l::CGigETLParams_Params",height=0.2,width=0.4,color="black", fillcolor="white", style="filled",URL="$class_basler___gig_e_t_l_params_1_1_c_gig_e_t_l_params___params.html",tooltip="Interface to the GigE transport layer specific parameters. "];
}
