digraph "Pylon::CGrabResultData"
{
  edge [fontname="Helvetica",fontsize="10",labelfontname="Helvetica",labelfontsize="10"];
  node [fontname="Helvetica",fontsize="10",shape=record];
  Node1 [label="Pylon::CGrabResultData",height=0.2,width=0.4,color="black", fillcolor="grey75", style="filled" fontcolor="black"];
  Node1 -> Node2 [dir="back",color="midnightblue",fontsize="10",style="solid",fontname="Helvetica"];
  Node2 [label="Pylon::CBaslerGigEGrabResultData",height=0.2,width=0.4,color="black", fillcolor="white", style="filled",URL="$class_pylon_1_1_c_basler_gig_e_grab_result_data.html",tooltip="The GigE specific grab result data. "];
  Node1 -> Node3 [dir="back",color="midnightblue",fontsize="10",style="solid",fontname="Helvetica"];
  Node3 [label="Pylon::CBaslerUsbGrabResultData",height=0.2,width=0.4,color="black", fillcolor="white", style="filled",URL="$class_pylon_1_1_c_basler_usb_grab_result_data.html",tooltip="The USB specific grab result data class. "];
}
