digraph "Basler_UsbTLParams::CUsbTLParams_Params"
{
  edge [fontname="Helvetica",fontsize="10",labelfontname="Helvetica",labelfontsize="10"];
  node [fontname="Helvetica",fontsize="10",shape=record];
  Node1 [label="Basler_UsbTLParams\l::CUsbTLParams_Params",height=0.2,width=0.4,color="black", fillcolor="grey75", style="filled" fontcolor="black"];
  Node1 -> Node2 [dir="back",color="midnightblue",fontsize="10",style="solid",fontname="Helvetica"];
  Node2 [label="Pylon::CNodeMapProxyT\l\< Basler_UsbTLParams\l::CUsbTLParams_Params \>",height=0.2,width=0.4,color="black", fillcolor="white", style="filled",URL="$class_pylon_1_1_c_node_map_proxy_t.html"];
  Node2 -> Node3 [dir="back",color="midnightblue",fontsize="10",style="solid",fontname="Helvetica"];
  Node3 [label="Pylon::CPylonUsbTLParams",height=0.2,width=0.4,color="black", fillcolor="white", style="filled",URL="$class_pylon_1_1_c_pylon_usb_t_l_params.html",tooltip="Low Level API: Class for pylon USB3 Vision cameras providing access to transport layer related parame..."];
}
