digraph "GenApi::IFileProtocolAdapter"
{
  edge [fontname="Helvetica",fontsize="10",labelfontname="Helvetica",labelfontsize="10"];
  node [fontname="Helvetica",fontsize="10",shape=record];
  Node1 [label="GenApi::IFileProtocolAdapter",height=0.2,width=0.4,color="black", fillcolor="grey75", style="filled" fontcolor="black"];
  Node1 -> Node2 [dir="back",color="midnightblue",fontsize="10",style="solid",fontname="Helvetica"];
  Node2 [label="GenApi::FileProtocolAdapter",height=0.2,width=0.4,color="black", fillcolor="white", style="filled",URL="$class_gen_api_1_1_file_protocol_adapter.html",tooltip="Adapter between the std::iostreambuf and the SFNC Features representing the device filesystem..."];
}
