digraph "GenApi::IFloat"
{
  edge [fontname="Helvetica",fontsize="10",labelfontname="Helvetica",labelfontsize="10"];
  node [fontname="Helvetica",fontsize="10",shape=record];
  Node1 [label="GenApi::IFloat",height=0.2,width=0.4,color="black", fillcolor="grey75", style="filled" fontcolor="black"];
  Node2 -> Node1 [dir="back",color="midnightblue",fontsize="10",style="solid",fontname="Helvetica"];
  Node2 [label="GenApi::IValue",height=0.2,width=0.4,color="black", fillcolor="white", style="filled",URL="$struct_gen_api_1_1_i_value.html",tooltip="Interface for value properties. "];
  Node3 -> Node2 [dir="back",color="midnightblue",fontsize="10",style="solid",fontname="Helvetica"];
  Node3 [label="GenApi::IBase",height=0.2,width=0.4,color="black", fillcolor="white", style="filled",URL="$struct_gen_api_1_1_i_base.html",tooltip="Base interface common to all nodes. "];
}
